%YAML 1.1
%TAG !u! tag:unity3d.com,2011:
--- !u!21 &2100000
Material:
  serializedVersion: 6
  m_ObjectHideFlags: 0
  m_CorrespondingSourceObject: {fileID: 0}
  m_PrefabInternal: {fileID: 0}
  m_Name: Icem 1
  m_Shader: {fileID: 4800000, guid: d288a1f2a304efd419e96c78f844b6ef, type: 3}
  m_ShaderKeywords: _NODE_2671_ON _SWITCHDIREC_ON
  m_LightmapFlags: 5
  m_EnableInstancingVariants: 0
  m_DoubleSidedGI: 0
  m_CustomRenderQueue: -1
  stringTagMap: {}
  disabledShaderPasses: []
  m_SavedProperties:
    serializedVersion: 3
    m_TexEnvs:
    - _BaseColor:
        m_Texture: {fileID: 2800000, guid: 50c397b0cfd8e7f4cb233370c8999495, type: 3}
        m_Scale: {x: 1, y: 1}
        m_Offset: {x: 0, y: 0}
    - _BumpMap:
        m_Texture: {fileID: 2800000, guid: ed904cf92daa73944949abb5520bea58, type: 3}
        m_Scale: {x: 2, y: 2}
        m_Offset: {x: 0, y: 0}
    - _DetailAlbedoMap:
        m_Texture: {fileID: 0}
        m_Scale: {x: 1, y: 1}
        m_Offset: {x: 0, y: 0}
    - _DetailMask:
        m_Texture: {fileID: 0}
        m_Scale: {x: 1, y: 1}
        m_Offset: {x: 0, y: 0}
    - _DetailNormalMap:
        m_Texture: {fileID: 0}
        m_Scale: {x: 1, y: 1}
        m_Offset: {x: 0, y: 0}
    - _EmissionMap:
        m_Texture: {fileID: 0}
        m_Scale: {x: 1, y: 1}
        m_Offset: {x: 0, y: 0}
    - _MainTex:
        m_Texture: {fileID: 0}
        m_Scale: {x: 2, y: 2}
        m_Offset: {x: 0, y: 0}
    - _MetallicGlossMap:
        m_Texture: {fileID: 0}
        m_Scale: {x: 1, y: 1}
        m_Offset: {x: 0, y: 0}
    - _Normal2:
        m_Texture: {fileID: 2800000, guid: fbba011cc6fa1474294f6700f3e9ac41, type: 3}
        m_Scale: {x: 1, y: 1}
        m_Offset: {x: 0, y: 0}
    - _NormalMapII:
        m_Texture: {fileID: 2800000, guid: fbba011cc6fa1474294f6700f3e9ac41, type: 3}
        m_Scale: {x: 1, y: 1}
        m_Offset: {x: 0, y: 0}
    - _OcclusionMap:
        m_Texture: {fileID: 0}
        m_Scale: {x: 1, y: 1}
        m_Offset: {x: 0, y: 0}
    - _ParallaxMap:
        m_Texture: {fileID: 0}
        m_Scale: {x: 1, y: 1}
        m_Offset: {x: 0, y: 0}
    - _node_3943:
        m_Texture: {fileID: 0}
        m_Scale: {x: 1.02, y: 1}
        m_Offset: {x: 0, y: 0}
    - _snow:
        m_Texture: {fileID: 2800000, guid: 50c397b0cfd8e7f4cb233370c8999495, type: 3}
        m_Scale: {x: 1, y: 1}
        m_Offset: {x: 0, y: 0}
    m_Floats:
    - _BumpScale: 1
    - _Cutoff: 0.5
    - _DarknessDistance: 5.3
    - _DarknessNoise: 2
    - _DarknessNoiseRange: 3
    - _DetailNormalMapScale: 1
    - _DstBlend: 0
    - _Freezeeffectnormal: 8.66
    - _Freezing: 4.28
    - _Gloss: 0.515
    - _Gloss2: 0.763
    - _Glossiness: 0.5
    - _Ice_fres: 2.54
    - _Ice_fresnel: 2.89
    - _LocalGlobal: 0
    - _Metallic: 0.521
    - _Mode: 0
    - _OcclusionStrength: 1
    - _Parallax: 0.02
    - _SrcBlend: 1
    - _SwitchDirec: 1
    - _TentacleLength: 2.5
    - _Transp: 0.128
    - _Transparency: 0.837
    - _UVSec: 0
    - _ZWrite: 1
    - _freeze: 0.46
    - _minusG: 1.55
    - _node_2671: 1
    - _node_3478: 0
    - _node_4603: 4.58
    - _node_5912: 0.6
    - _node_8801: 1.91
    - _node_9046: 1.12
    - _snow_slider: 1.41
    m_Colors:
    - _Color: {r: 0, g: 1, b: 0.98041606, a: 1}
    - _EmissionColor: {r: 0, g: 0, b: 0, a: 1}
    - _node_5379: {r: 1, g: 0.6397059, b: 0.6397059, a: 1}
    - _node_6644: {r: 0.5147059, g: 0.7389455, b: 1, a: 1}
    - _node_9193: {r: 1, g: 1, b: 0.49264705, a: 1}
